<?xml version="1.0" encoding="iso-8859-1"?>
<!-- Generator: Adobe Illustrator 23.0.0, SVG Export Plug-In . SVG Version: 6.00 Build 0)  -->
<svg version="1.1" id="Capa_1" xmlns="http://www.w3.org/2000/svg" xmlns:xlink="http://www.w3.org/1999/xlink" x="0px" y="0px"
	 viewBox="0 0 480 480" style="enable-background:new 0 0 480 480;" xml:space="preserve">
<g>
	<g>
		<path d="M472,464H288v-48c0-4.418-3.582-8-8-8h-64V112c0-53.019,42.981-96,96-96s96,42.981,96,96v8h-40v-16
			c0-30.928-25.072-56-56-56s-56,25.072-56,56v280c0,4.418,3.582,8,8,8s8-3.582,8-8V104c0-22.091,17.909-40,40-40s40,17.909,40,40
			v17.456c-3.372,1.17-6.437,3.084-8.968,5.6c-9.358,9.387-9.334,24.583,0.053,33.941c4.492,4.478,10.573,6.995,16.915,7.003h56
			c13.219,0.077,23.998-10.577,24.075-23.796c0.06-10.241-6.402-19.385-16.075-22.748V112C424,50.144,373.856,0,312,0
			S200,50.144,200,112v296h-8c-4.418,0-8,3.582-8,8v48H8c-4.418,0-8,3.582-8,8s3.582,8,8,8h464c4.418,0,8-3.582,8-8
			S476.418,464,472,464z M421.656,138.344c3.124,3.125,3.123,8.19-0.002,11.314c-1.5,1.499-3.534,2.342-5.654,2.342h-56
			c-4.418,0-8-3.582-8-8s3.582-8,8-8h56C418.122,136,420.156,136.844,421.656,138.344z M272,464h-72v-40h72V464z"/>
	</g>
</g>
<g>
	<g>
		<path d="M408,336h-96c-4.418,0-8,3.582-8,8v96c0,4.418,3.582,8,8,8h96c4.418,0,8-3.582,8-8v-96C416,339.582,412.418,336,408,336z
			 M400,432h-80v-80h80V432z"/>
	</g>
</g>
<g>
	<g>
		<path d="M344,368c-4.418,0-8,3.582-8,8v32c0,4.418,3.582,8,8,8s8-3.582,8-8v-32C352,371.582,348.418,368,344,368z"/>
	</g>
</g>
<g>
	<g>
		<path d="M376,368c-4.418,0-8,3.582-8,8v32c0,4.418,3.582,8,8,8s8-3.582,8-8v-32C384,371.582,380.418,368,376,368z"/>
	</g>
</g>
<g>
	<g>
		<path d="M160,336H64c-4.418,0-8,3.582-8,8v96c0,4.418,3.582,8,8,8h96c4.418,0,8-3.582,8-8v-96C168,339.582,164.418,336,160,336z
			 M152,432H72v-80h80V432z"/>
	</g>
</g>
<g>
	<g>
		<path d="M96,368c-4.418,0-8,3.582-8,8v32c0,4.418,3.582,8,8,8s8-3.582,8-8v-32C104,371.582,100.418,368,96,368z"/>
	</g>
</g>
<g>
	<g>
		<path d="M128,368c-4.418,0-8,3.582-8,8v32c0,4.418,3.582,8,8,8s8-3.582,8-8v-32C136,371.582,132.418,368,128,368z"/>
	</g>
</g>
<g>
	<g>
		<path d="M418,228.584l-27.344-41.024c-2.75-3.676-7.959-4.427-11.635-1.677c-0.636,0.476-1.201,1.041-1.677,1.677L350,228.584
			c-12.527,18.778-7.461,44.156,11.317,56.683c18.778,12.528,44.156,7.461,56.683-11.317
			C427.163,260.216,427.163,242.318,418,228.584z M408,257.64c-3.528,13.271-17.146,21.17-30.417,17.642
			s-21.17-17.146-17.642-30.417c0.7-2.633,1.828-5.134,3.339-7.401L384,206.4l20.688,31.04
			C408.639,243.386,409.845,250.743,408,257.64z"/>
	</g>
</g>
</svg>
