<?xml version="1.0" encoding="utf-8"?>
<!-- Generator: Adobe Illustrator 23.0.0, SVG Export Plug-In . SVG Version: 6.00 Build 0)  -->
<svg version="1.1" id="Capa_1" xmlns="http://www.w3.org/2000/svg" xmlns:xlink="http://www.w3.org/1999/xlink" x="0px" y="0px"
	 viewBox="0 0 10 12" style="enable-background:new 0 0 10 12;" xml:space="preserve">
<style type="text/css">
	.st0{fill:#009DDD;}
</style>
<g>
	<g>
		<path class="st0" d="M4.8,6.9C4.8,7,4.9,7,5,7s0.2,0,0.2-0.1l4.7-4.7C10,2.2,10,2.1,10,2c0-0.1,0-0.2-0.1-0.2L9.4,1.3
			C9.3,1.2,9.3,1.2,9.2,1.2c-0.1,0-0.2,0-0.2,0.1L5,5.2L1.1,1.3C1,1.2,0.9,1.2,0.8,1.2c-0.1,0-0.2,0-0.2,0.1L0.1,1.8
			C0,1.8,0,1.9,0,2s0,0.2,0.1,0.2L4.8,6.9z"/>
		<path class="st0" d="M9.4,5.1C9.3,5,9.3,5,9.2,5C9.1,5,9,5,8.9,5.1L5,9L1.1,5.1C1,5,0.9,5,0.8,5C0.7,5,0.7,5,0.6,5.1L0.1,5.6
			C0,5.7,0,5.8,0,5.8C0,5.9,0,6,0.1,6.1l4.7,4.7c0.1,0.1,0.1,0.1,0.2,0.1s0.2,0,0.2-0.1l4.7-4.7C10,6,10,5.9,10,5.8
			c0-0.1,0-0.2-0.1-0.2L9.4,5.1z"/>
	</g>
</g>
</svg>
